%!PS-Adobe-3.0 EPSF-3.0
%%Creator: cairo 1.12.8 (http://cairographics.org)
%%CreationDate: Mon Oct 28 19:45:45 2013
%%Pages: 1
%%DocumentData: Clean7Bit
%%LanguageLevel: 2
%%BoundingBox: 0 -1 513 347
%%EndComments
%%BeginProlog
save
50 dict begin
/q { gsave } bind def
/Q { grestore } bind def
/cm { 6 array astore concat } bind def
/w { setlinewidth } bind def
/J { setlinecap } bind def
/j { setlinejoin } bind def
/M { setmiterlimit } bind def
/d { setdash } bind def
/m { moveto } bind def
/l { lineto } bind def
/c { curveto } bind def
/h { closepath } bind def
/re { exch dup neg 3 1 roll 5 3 roll moveto 0 rlineto
      0 exch rlineto 0 rlineto closepath } bind def
/S { stroke } bind def
/f { fill } bind def
/f* { eofill } bind def
/n { newpath } bind def
/W { clip } bind def
/W* { eoclip } bind def
/BT { } bind def
/ET { } bind def
/pdfmark where { pop globaldict /?pdfmark /exec load put }
    { globaldict begin /?pdfmark /pop load def /pdfmark
    /cleartomark load def end } ifelse
/BDC { mark 3 1 roll /BDC pdfmark } bind def
/EMC { mark /EMC pdfmark } bind def
/cairo_store_point { /cairo_point_y exch def /cairo_point_x exch def } def
/Tj { show currentpoint cairo_store_point } bind def
/TJ {
  {
    dup
    type /stringtype eq
    { show } { -0.001 mul 0 cairo_font_matrix dtransform rmoveto } ifelse
  } forall
  currentpoint cairo_store_point
} bind def
/cairo_selectfont { cairo_font_matrix aload pop pop pop 0 0 6 array astore
    cairo_font exch selectfont cairo_point_x cairo_point_y moveto } bind def
/Tf { pop /cairo_font exch def /cairo_font_matrix where
      { pop cairo_selectfont } if } bind def
/Td { matrix translate cairo_font_matrix matrix concatmatrix dup
      /cairo_font_matrix exch def dup 4 get exch 5 get cairo_store_point
      /cairo_font where { pop cairo_selectfont } if } bind def
/Tm { 2 copy 8 2 roll 6 array astore /cairo_font_matrix exch def
      cairo_store_point /cairo_font where { pop cairo_selectfont } if } bind def
/g { setgray } bind def
/rg { setrgbcolor } bind def
/d1 { setcachedevice } bind def
%%EndProlog
%%Page: 1 1
%%BeginPageSetup
%%PageBoundingBox: 0 -1 513 347
%%EndPageSetup
q 0 -1 513 348 rectclip q
0.4 0.176471 0.568627 rg
0.41 119.519 511.504 -119.117 re f
0 g
0.8 w
0 J
0 j
[] 0.0 d
4 M q 1 0 0 -1 0 346.799988 cm
0.41 227.281 511.504 119.117 re S Q
0.701961 g
191.273 229.312 128.547 -65.711 re f
0 g
q 1 0 0 -1 0 346.799988 cm
191.273 117.488 128.547 65.711 re S Q
0 1 1 rg
204.676 119.519 m 204.676 71.87 l 204.676 71.87 204.676 55.991 188.922 
55.991 c 94.387 55.991 l 94.387 55.991 78.637 55.991 78.637 71.87 c 78.637
 119.519 l f
0 g
q 1 0 0 -1 0 346.799988 cm
204.676 227.281 m 204.676 274.93 l 204.676 274.93 204.676 290.809 188.922
 290.809 c 94.387 290.809 l 94.387 290.809 78.637 290.809 78.637 274.93 
c 78.637 227.281 l S Q
0.968627 0.576471 0.117647 rg
110.348 346.402 62.605 -226.672 re f
0 g
q 1 0 0 -1 0 346.799988 cm
110.348 0.398 62.605 226.672 re S Q
0 1 1 rg
429.098 119.519 m 429.098 71.87 l 429.098 71.87 429.098 55.991 413.348 
55.991 c 318.812 55.991 l 318.812 55.991 303.059 55.991 303.059 71.87 c 
303.059 119.519 l f
0 g
q 1 0 0 -1 0 346.799988 cm
429.098 227.281 m 429.098 274.93 l 429.098 274.93 429.098 290.809 413.348
 290.809 c 318.812 290.809 l 318.812 290.809 303.059 290.809 303.059 274.93
 c 303.059 227.281 l S Q
0.968627 0.576471 0.117647 rg
334.77 333.816 62.609 -214.086 re f
0 g
q 1 0 0 -1 0 346.799988 cm
334.77 12.984 62.609 214.086 re S Q
0 0 1 rg
191.273 163.601 128.832 -43.59 re f
0 g
q 1 0 0 -1 0 346.799988 cm
191.273 183.199 128.832 43.59 re S Q
1 g
219.316 137.327 m 219.316 147.632 l 226.266 147.632 l 226.266 146.417 l
 220.676 146.417 l 220.676 143.226 l 225.516 143.226 l 225.516 142.007 l
 220.676 142.007 l 220.676 137.327 l 219.316 137.327 l 232.996 139.737 m
 234.301 139.57 l 234.098 138.808 233.715 138.214 233.156 137.792 c 232.594
 137.366 231.883 137.159 231.02 137.159 c 229.93 137.159 229.059 137.495
 228.418 138.167 c 227.777 138.839 227.461 139.784 227.461 140.999 c 227.461
 142.257 227.785 143.234 228.434 143.921 c 229.074 144.616 229.914 144.96
 230.945 144.96 c 231.945 144.96 232.762 144.624 233.395 143.945 c 234.027
 143.265 234.348 142.312 234.348 141.073 c 234.348 140.999 234.34 140.89
 234.34 140.737 c 228.77 140.737 l 228.82 139.921 229.051 139.288 229.469
 138.855 c 229.883 138.417 230.402 138.198 231.027 138.198 c 231.492 138.198
 231.883 138.32 232.211 138.57 c 232.539 138.808 232.805 139.198 232.996
 139.737 c 228.844 141.777 m 233.012 141.777 l 232.953 142.409 232.797 142.878
 232.531 143.191 c 232.133 143.679 231.602 143.921 230.965 143.921 c 230.379
 143.921 229.891 143.73 229.492 143.335 c 229.098 142.952 228.883 142.433
 228.844 141.777 c 235.883 137.327 m 235.883 144.792 l 237.027 144.792 l
 237.027 143.663 l 237.316 144.191 237.578 144.542 237.828 144.71 c 238.074
 144.878 238.348 144.96 238.645 144.96 c 239.066 144.96 239.5 144.823 239.938
 144.562 c 239.508 143.386 l 239.195 143.57 238.891 143.655 238.578 143.655
 c 238.301 143.655 238.051 143.57 237.836 143.402 c 237.609 143.241 237.461
 143.007 237.363 142.71 c 237.219 142.265 237.148 141.769 237.148 141.241
 c 237.148 137.327 l 235.883 137.327 l 240.691 137.327 m 240.691 144.792
 l 241.836 144.792 l 241.836 143.663 l 242.121 144.191 242.395 144.542 242.637
 144.71 c 242.883 144.878 243.156 144.96 243.449 144.96 c 243.875 144.96
 244.309 144.823 244.754 144.562 c 244.316 143.386 l 244.004 143.57 243.699
 143.655 243.387 143.655 c 243.105 143.655 242.859 143.57 242.645 143.402
 c 242.418 143.241 242.266 143.007 242.172 142.71 c 242.027 142.265 241.965
 141.769 241.965 141.241 c 241.965 137.327 l 240.691 137.327 l 245.043 141.066
 m 245.043 142.448 245.434 143.472 246.203 144.136 c 246.844 144.687 247.629
 144.96 248.547 144.96 c 249.57 144.96 250.41 144.624 251.066 143.952 c 
251.715 143.28 252.043 142.351 252.043 141.167 c 252.043 140.206 251.898
 139.448 251.602 138.898 c 251.324 138.343 250.898 137.921 250.348 137.616
 c 249.805 137.312 249.203 137.159 248.547 137.159 c 247.5 137.159 246.66
 137.495 246.012 138.167 c 245.371 138.831 245.043 139.8 245.043 141.066
 c 246.348 141.066 m 246.348 140.105 246.555 139.394 246.973 138.913 c 247.387
 138.441 247.914 138.198 248.547 138.198 c 249.18 138.198 249.699 138.441
 250.113 138.921 c 250.531 139.394 250.738 140.128 250.738 141.105 c 250.738
 142.023 250.531 142.73 250.105 143.198 c 249.691 143.679 249.172 143.921
 248.547 143.921 c 247.914 143.921 247.387 143.679 246.973 143.206 c 246.555
 142.737 246.348 142.015 246.348 141.066 c 258.645 139.737 m 259.953 139.57
 l 259.746 138.808 259.363 138.214 258.805 137.792 c 258.25 137.366 257.539
 137.159 256.668 137.159 c 255.578 137.159 254.707 137.495 254.066 138.167
 c 253.426 138.839 253.113 139.784 253.113 140.999 c 253.113 142.257 253.434
 143.234 254.082 143.921 c 254.73 144.616 255.57 144.96 256.594 144.96 c
 257.594 144.96 258.41 144.624 259.043 143.945 c 259.676 143.265 259.996
 142.312 259.996 141.073 c 259.996 140.999 259.996 140.89 259.988 140.737
 c 254.418 140.737 l 254.469 139.921 254.699 139.288 255.113 138.855 c 255.531
 138.417 256.051 138.198 256.676 138.198 c 257.141 138.198 257.539 138.32
 257.867 138.57 c 258.195 138.808 258.449 139.198 258.645 139.737 c 254.492
 141.777 m 258.66 141.777 l 258.602 142.409 258.441 142.878 258.18 143.191
 c 257.777 143.679 257.258 143.921 256.609 143.921 c 256.035 143.921 255.539
 143.73 255.148 143.335 c 254.746 142.952 254.531 142.433 254.492 141.777
 c 261.523 137.327 m 261.523 147.632 l 262.785 147.632 l 262.785 137.327
 l 261.523 137.327 l 269.867 139.737 m 271.172 139.57 l 270.973 138.808 
270.586 138.214 270.027 137.792 c 269.469 137.366 268.754 137.159 267.891
 137.159 c 266.797 137.159 265.93 137.495 265.289 138.167 c 264.652 138.839
 264.332 139.784 264.332 140.999 c 264.332 142.257 264.66 143.234 265.309
 143.921 c 265.945 144.616 266.785 144.96 267.82 144.96 c 268.82 144.96 
269.637 144.624 270.266 143.945 c 270.898 143.265 271.219 142.312 271.219
 141.073 c 271.219 140.999 271.211 140.89 271.211 140.737 c 265.645 140.737
 l 265.691 139.921 265.922 139.288 266.34 138.855 c 266.754 138.417 267.273
 138.198 267.898 138.198 c 268.363 138.198 268.754 138.32 269.082 138.57
 c 269.41 138.808 269.676 139.198 269.867 139.737 c 265.715 141.777 m 269.883
 141.777 l 269.828 142.409 269.668 142.878 269.402 143.191 c 269.004 143.679
 268.477 143.921 267.836 143.921 c 267.25 143.921 266.762 143.73 266.363
 143.335 c 265.973 142.952 265.754 142.433 265.715 141.777 c 277.645 140.066
 m 278.891 139.905 l 278.754 139.038 278.402 138.366 277.844 137.878 c 277.281
 137.402 276.594 137.159 275.777 137.159 c 274.754 137.159 273.938 137.495
 273.316 138.159 c 272.691 138.831 272.387 139.784 272.387 141.03 c 272.387
 141.839 272.516 142.542 272.785 143.152 c 273.051 143.753 273.461 144.206
 274.004 144.503 c 274.547 144.808 275.148 144.96 275.785 144.96 c 276.594
 144.96 277.258 144.761 277.777 144.343 c 278.289 143.937 278.629 143.359
 278.77 142.601 c 277.539 142.409 l 277.418 142.913 277.211 143.288 276.914
 143.542 c 276.617 143.8 276.258 143.921 275.836 143.921 c 275.195 143.921
 274.684 143.695 274.281 143.234 c 273.883 142.777 273.684 142.058 273.684
 141.073 c 273.684 140.066 273.875 139.335 274.258 138.878 c 274.645 138.425
 275.148 138.198 275.762 138.198 c 276.266 138.198 276.676 138.351 277.012
 138.655 c 277.348 138.96 277.555 139.433 277.645 140.066 c 282.73 138.464
 m 282.914 137.343 l 282.562 137.265 282.242 137.234 281.965 137.234 c 281.5
 137.234 281.148 137.304 280.891 137.448 c 280.637 137.593 280.461 137.784
 280.355 138.015 c 280.25 138.257 280.203 138.753 280.203 139.511 c 280.203
 143.808 l 279.273 143.808 l 279.273 144.792 l 280.203 144.792 l 280.203
 146.648 l 281.461 147.402 l 281.461 144.792 l 282.73 144.792 l 282.73 143.808
 l 281.461 143.808 l 281.461 139.448 l 281.461 139.081 281.484 138.847 281.523
 138.753 c 281.57 138.648 281.645 138.562 281.738 138.503 c 281.844 138.441
 281.996 138.409 282.18 138.409 c 282.324 138.409 282.508 138.425 282.73
 138.464 c 283.945 137.327 m 283.945 144.792 l 285.09 144.792 l 285.09 143.663
 l 285.379 144.191 285.652 144.542 285.891 144.71 c 286.141 144.878 286.41
 144.96 286.707 144.96 c 287.133 144.96 287.562 144.823 288.012 144.562 
c 287.57 143.386 l 287.258 143.57 286.953 143.655 286.645 143.655 c 286.363
 143.655 286.113 143.57 285.898 143.402 c 285.676 143.241 285.523 143.007
 285.426 142.71 c 285.281 142.265 285.219 141.769 285.219 141.241 c 285.219
 137.327 l 283.945 137.327 l 288.777 146.183 m 288.777 147.632 l 290.043
 147.632 l 290.043 146.183 l 288.777 146.183 l 288.777 137.327 m 288.777
 144.792 l 290.043 144.792 l 290.043 137.327 l 288.777 137.327 l 296.852
 140.066 m 298.098 139.905 l 297.965 139.038 297.609 138.366 297.051 137.878
 c 296.492 137.402 295.805 137.159 294.988 137.159 c 293.973 137.159 293.148
 137.495 292.523 138.159 c 291.898 138.831 291.594 139.784 291.594 141.03
 c 291.594 141.839 291.73 142.542 291.996 143.152 c 292.258 143.753 292.668
 144.206 293.211 144.503 c 293.762 144.808 294.355 144.96 294.996 144.96
 c 295.812 144.96 296.469 144.761 296.988 144.343 c 297.5 143.937 297.836
 143.359 297.98 142.601 c 296.746 142.409 l 296.629 142.913 296.418 143.288
 296.121 143.542 c 295.828 143.8 295.469 143.921 295.043 143.921 c 294.41
 143.921 293.891 143.695 293.492 143.234 c 293.09 142.777 292.891 142.058
 292.891 141.073 c 292.891 140.066 293.082 139.335 293.469 138.878 c 293.859
 138.425 294.355 138.198 294.98 138.198 c 295.477 138.198 295.891 138.351
 296.219 138.655 c 296.555 138.96 296.762 139.433 296.852 140.066 c 196.484
 123.663 m 196.484 126.495 l 193.676 126.495 l 193.676 127.671 l 196.484
 127.671 l 196.484 130.48 l 197.676 130.48 l 197.676 127.671 l 200.484 127.671
 l 200.484 126.495 l 197.676 126.495 l 197.676 123.663 l 196.484 123.663
 l 204.891 123.663 m 204.891 126.495 l 202.082 126.495 l 202.082 127.671
 l 204.891 127.671 l 204.891 130.48 l 206.082 130.48 l 206.082 127.671 l
 208.891 127.671 l 208.891 126.495 l 206.082 126.495 l 206.082 123.663 l
 204.891 123.663 l 213.301 123.663 m 213.301 126.495 l 210.5 126.495 l 210.5
 127.671 l 213.301 127.671 l 213.301 130.48 l 214.5 130.48 l 214.5 127.671
 l 217.301 127.671 l 217.301 126.495 l 214.5 126.495 l 214.5 123.663 l 213.301
 123.663 l 221.707 123.663 m 221.707 126.495 l 218.906 126.495 l 218.906
 127.671 l 221.707 127.671 l 221.707 130.48 l 222.906 130.48 l 222.906 127.671
 l 225.707 127.671 l 225.707 126.495 l 222.906 126.495 l 222.906 123.663
 l 221.707 123.663 l 230.121 123.663 m 230.121 126.495 l 227.316 126.495
 l 227.316 127.671 l 230.121 127.671 l 230.121 130.48 l 231.316 130.48 l
 231.316 127.671 l 234.121 127.671 l 234.121 126.495 l 231.316 126.495 l
 231.316 123.663 l 230.121 123.663 l 238.531 123.663 m 238.531 126.495 l
 235.723 126.495 l 235.723 127.671 l 238.531 127.671 l 238.531 130.48 l 
239.723 130.48 l 239.723 127.671 l 242.531 127.671 l 242.531 126.495 l 239.723
 126.495 l 239.723 123.663 l 238.531 123.663 l 246.938 123.663 m 246.938
 126.495 l 244.133 126.495 l 244.133 127.671 l 246.938 127.671 l 246.938
 130.48 l 248.133 130.48 l 248.133 127.671 l 250.938 127.671 l 250.938 126.495
 l 248.133 126.495 l 248.133 123.663 l 246.938 123.663 l 255.348 123.663
 m 255.348 126.495 l 252.539 126.495 l 252.539 127.671 l 255.348 127.671
 l 255.348 130.48 l 256.539 130.48 l 256.539 127.671 l 259.348 127.671 l
 259.348 126.495 l 256.539 126.495 l 256.539 123.663 l 255.348 123.663 l
 263.754 123.663 m 263.754 126.495 l 260.953 126.495 l 260.953 127.671 l
 263.754 127.671 l 263.754 130.48 l 264.953 130.48 l 264.953 127.671 l 267.754
 127.671 l 267.754 126.495 l 264.953 126.495 l 264.953 123.663 l 263.754
 123.663 l 272.164 123.663 m 272.164 126.495 l 269.363 126.495 l 269.363
 127.671 l 272.164 127.671 l 272.164 130.48 l 273.363 130.48 l 273.363 127.671
 l 276.172 127.671 l 276.172 126.495 l 273.363 126.495 l 273.363 123.663
 l 272.164 123.663 l 280.578 123.663 m 280.578 126.495 l 277.77 126.495 
l 277.77 127.671 l 280.578 127.671 l 280.578 130.48 l 281.77 130.48 l 281.77
 127.671 l 284.578 127.671 l 284.578 126.495 l 281.77 126.495 l 281.77 123.663
 l 280.578 123.663 l 288.988 123.663 m 288.988 126.495 l 286.18 126.495 
l 286.18 127.671 l 288.988 127.671 l 288.988 130.48 l 290.18 130.48 l 290.18
 127.671 l 292.988 127.671 l 292.988 126.495 l 290.18 126.495 l 290.18 123.663
 l 288.988 123.663 l 297.395 123.663 m 297.395 126.495 l 294.586 126.495
 l 294.586 127.671 l 297.395 127.671 l 297.395 130.48 l 298.586 130.48 l
 298.586 127.671 l 301.395 127.671 l 301.395 126.495 l 298.586 126.495 l
 298.586 123.663 l 297.395 123.663 l 305.805 123.663 m 305.805 126.495 l
 302.996 126.495 l 302.996 127.671 l 305.805 127.671 l 305.805 130.48 l 
307.004 130.48 l 307.004 127.671 l 309.805 127.671 l 309.805 126.495 l 307.004
 126.495 l 307.004 123.663 l 305.805 123.663 l 195.73 157.097 m 195.73 158.366
 l 199.617 158.366 l 199.617 157.097 l 195.73 157.097 l 204.539 157.097 
m 204.539 158.366 l 208.426 158.366 l 208.426 157.097 l 204.539 157.097 
l 213.34 157.097 m 213.34 158.366 l 217.227 158.366 l 217.227 157.097 l 
213.34 157.097 l 222.141 157.097 m 222.141 158.366 l 226.027 158.366 l 226.027
 157.097 l 222.141 157.097 l 230.945 157.097 m 230.945 158.366 l 234.836
 158.366 l 234.836 157.097 l 230.945 157.097 l 239.746 157.097 m 239.746
 158.366 l 243.637 158.366 l 243.637 157.097 l 239.746 157.097 l 248.547
 157.097 m 248.547 158.366 l 252.441 158.366 l 252.441 157.097 l 248.547
 157.097 l 257.355 157.097 m 257.355 158.366 l 261.242 158.366 l 261.242
 157.097 l 257.355 157.097 l 266.156 157.097 m 266.156 158.366 l 270.043
 158.366 l 270.043 157.097 l 266.156 157.097 l 274.965 157.097 m 274.965
 158.366 l 278.852 158.366 l 278.852 157.097 l 274.965 157.097 l 283.762
 157.097 m 283.762 158.366 l 287.652 158.366 l 287.652 157.097 l 283.762
 157.097 l 292.562 157.097 m 292.562 158.366 l 296.449 158.366 l 296.449
 157.097 l 292.562 157.097 l 301.371 157.097 m 301.371 158.366 l 305.258
 158.366 l 305.258 157.097 l 301.371 157.097 l 310.172 157.097 m 310.172
 158.366 l 314.059 158.366 l 314.059 157.097 l 310.172 157.097 l f
0 1 0 rg
204.074 120.402 99.199 -14.402 re f
0 g
q 1 0 0 -1 0 346.799988 cm
204.074 226.398 99.199 14.402 re S Q
227.785 191.624 m 225.051 201.929 l 226.449 201.929 l 228.02 195.175 l 
228.188 194.464 228.332 193.761 228.449 193.066 c 228.715 194.167 228.875
 194.8 228.914 194.968 c 230.883 201.929 l 232.523 201.929 l 234.004 196.71
 l 234.371 195.425 234.645 194.206 234.805 193.066 c 234.93 193.722 235.105
 194.464 235.316 195.312 c 236.93 201.929 l 238.309 201.929 l 235.477 191.624
 l 234.164 191.624 l 231.988 199.48 l 231.812 200.136 231.699 200.534 231.668
 200.687 c 231.562 200.214 231.461 199.808 231.363 199.48 c 229.18 191.624
 l 227.785 191.624 l 238.715 195.359 m 238.715 196.745 239.098 197.769 239.867
 198.433 c 240.508 198.984 241.289 199.257 242.211 199.257 c 243.242 199.257
 244.082 198.921 244.73 198.249 c 245.379 197.577 245.707 196.648 245.707
 195.464 c 245.707 194.503 245.562 193.745 245.273 193.191 c 244.988 192.64
 244.57 192.214 244.012 191.913 c 243.469 191.609 242.867 191.456 242.211
 191.456 c 241.172 191.456 240.324 191.792 239.676 192.464 c 239.035 193.128
 238.715 194.097 238.715 195.359 c 240.012 195.359 m 240.012 194.402 240.219
 193.687 240.645 193.206 c 241.059 192.737 241.578 192.495 242.211 192.495
 c 242.844 192.495 243.363 192.737 243.777 193.214 c 244.203 193.687 244.41
 194.425 244.41 195.402 c 244.41 196.32 244.195 197.023 243.77 197.495 c
 243.355 197.976 242.836 198.214 242.211 198.214 c 241.578 198.214 241.059
 197.976 240.645 197.503 c 240.219 197.03 240.012 196.312 240.012 195.359
 c 247.188 191.624 m 247.188 199.089 l 248.324 199.089 l 248.324 197.96 
l 248.609 198.487 248.883 198.839 249.121 199.007 c 249.371 199.175 249.645
 199.257 249.938 199.257 c 250.371 199.257 250.805 199.12 251.242 198.855
 c 250.805 197.679 l 250.5 197.862 250.188 197.952 249.875 197.952 c 249.602
 197.952 249.355 197.862 249.133 197.695 c 248.914 197.534 248.754 197.304
 248.66 197.007 c 248.523 196.562 248.449 196.066 248.449 195.534 c 248.449
 191.624 l 247.188 191.624 l 256.852 191.624 m 256.852 192.57 l 256.379 
191.823 255.684 191.456 254.762 191.456 c 254.172 191.456 253.617 191.616
 253.121 191.945 c 252.617 192.273 252.234 192.737 251.965 193.32 c 251.691
 193.913 251.555 194.585 251.555 195.351 c 251.555 196.097 251.676 196.769
 251.922 197.374 c 252.172 197.984 252.547 198.448 253.043 198.777 c 253.539
 199.097 254.09 199.257 254.707 199.257 c 255.156 199.257 255.562 199.159
 255.906 198.968 c 256.258 198.784 256.547 198.534 256.77 198.234 c 256.77
 201.929 l 258.027 201.929 l 258.027 191.624 l 256.852 191.624 l 252.852
 195.351 m 252.852 194.394 253.051 193.679 253.461 193.206 c 253.859 192.737
 254.34 192.495 254.883 192.495 c 255.434 192.495 255.906 192.722 256.289
 193.167 c 256.684 193.624 256.875 194.32 256.875 195.249 c 256.875 196.265
 256.676 197.015 256.281 197.495 c 255.891 197.976 255.402 198.214 254.828
 198.214 c 254.266 198.214 253.797 197.984 253.41 197.519 c 253.043 197.066
 252.852 196.335 252.852 195.351 c 264.121 191.624 m 264.121 201.929 l 265.492
 201.929 l 265.492 192.839 l 270.562 192.839 l 270.562 191.624 l 264.121
 191.624 l 272.043 200.48 m 272.043 201.929 l 273.309 201.929 l 273.309 
200.48 l 272.043 200.48 l 272.043 191.624 m 272.043 199.089 l 273.309 199.089
 l 273.309 191.624 l 272.043 191.624 l 275.242 191.624 m 275.242 199.089
 l 276.379 199.089 l 276.379 198.03 l 276.93 198.847 277.723 199.257 278.754
 199.257 c 279.203 199.257 279.617 199.175 279.996 199.015 c 280.371 198.855
 280.66 198.64 280.844 198.386 c 281.035 198.12 281.164 197.808 281.234 
197.448 c 281.281 197.206 281.309 196.8 281.309 196.214 c 281.309 191.624
 l 280.043 191.624 l 280.043 196.167 l 280.043 196.679 279.996 197.066 279.891
 197.32 c 279.797 197.577 279.617 197.784 279.371 197.929 c 279.113 198.089
 278.828 198.159 278.492 198.159 c 277.945 198.159 277.484 197.991 277.09
 197.648 c 276.699 197.304 276.508 196.655 276.508 195.702 c 276.508 191.624
 l 275.242 191.624 l 288.371 194.03 m 289.676 193.862 l 289.469 193.105 
289.082 192.511 288.531 192.089 c 287.973 191.663 287.258 191.456 286.395
 191.456 c 285.301 191.456 284.434 191.792 283.785 192.464 c 283.156 193.136
 282.836 194.081 282.836 195.296 c 282.836 196.554 283.156 197.527 283.805
 198.214 c 284.449 198.913 285.289 199.257 286.324 199.257 c 287.324 199.257
 288.141 198.921 288.77 198.241 c 289.402 197.562 289.715 196.609 289.715
 195.366 c 289.715 195.296 289.715 195.183 289.707 195.03 c 284.141 195.03
 l 284.188 194.214 284.418 193.585 284.836 193.152 c 285.25 192.71 285.77
 192.495 286.395 192.495 c 286.859 192.495 287.258 192.616 287.586 192.862
 c 287.914 193.105 288.172 193.495 288.371 194.03 c 284.211 196.073 m 288.379
 196.073 l 288.324 196.702 288.164 197.175 287.906 197.487 c 287.5 197.976
 286.98 198.214 286.34 198.214 c 285.754 198.214 285.266 198.023 284.867
 197.632 c 284.477 197.249 284.25 196.73 284.211 196.073 c 120.148 200.402
 m 120.148 210.702 l 124.012 210.702 l 124.805 210.702 125.426 210.601 125.906
 210.394 c 126.379 210.183 126.754 209.862 127.02 209.433 c 127.289 208.999
 127.426 208.542 127.426 208.073 c 127.426 207.632 127.309 207.214 127.074
 206.823 c 126.836 206.441 126.477 206.12 125.988 205.89 c 126.609 205.702
 127.09 205.394 127.426 204.952 c 127.762 204.511 127.93 203.991 127.93 
203.394 c 127.93 202.905 127.828 202.456 127.617 202.038 c 127.418 201.624
 127.172 201.304 126.867 201.081 c 126.57 200.855 126.188 200.687 125.738
 200.57 c 125.281 200.456 124.73 200.402 124.074 200.402 c 120.148 200.402
 l 121.508 206.374 m 123.738 206.374 l 124.348 206.374 124.777 206.417 125.043
 206.495 c 125.387 206.601 125.645 206.769 125.82 207.007 c 125.996 207.249
 126.09 207.554 126.09 207.913 c 126.09 208.249 126.004 208.554 125.844 
208.808 c 125.676 209.073 125.441 209.249 125.141 209.343 c 124.836 209.441
 124.309 209.487 123.57 209.487 c 121.508 209.487 l 121.508 206.374 l 121.508
 201.616 m 124.074 201.616 l 124.516 201.616 124.828 201.632 125.004 201.663
 c 125.316 201.722 125.578 201.816 125.797 201.945 c 126.004 202.081 126.18
 202.265 126.316 202.519 c 126.449 202.769 126.516 203.066 126.516 203.394
 c 126.516 203.777 126.418 204.105 126.219 204.386 c 126.027 204.671 125.746
 204.87 125.395 204.984 c 125.051 205.105 124.547 205.159 123.891 205.159
 c 121.508 205.159 l 121.508 201.616 l 129.668 209.257 m 129.668 210.702
 l 130.93 210.702 l 130.93 209.257 l 129.668 209.257 l 129.668 200.402 m
 129.668 207.862 l 130.93 207.862 l 130.93 200.402 l 129.668 200.402 l 135.629
 201.534 m 135.812 200.417 l 135.461 200.335 135.141 200.304 134.859 200.304
 c 134.395 200.304 134.043 200.374 133.785 200.519 c 133.531 200.663 133.355
 200.855 133.25 201.089 c 133.148 201.327 133.098 201.823 133.098 202.585
 c 133.098 206.878 l 132.172 206.878 l 132.172 207.862 l 133.098 207.862
 l 133.098 209.722 l 134.355 210.472 l 134.355 207.862 l 135.629 207.862
 l 135.629 206.878 l 134.355 206.878 l 134.355 202.519 l 134.355 202.152
 134.379 201.921 134.418 201.823 c 134.469 201.722 134.539 201.632 134.637
 201.577 c 134.738 201.511 134.883 201.48 135.074 201.48 c 135.211 201.48
 135.395 201.495 135.629 201.534 c 140.953 200.402 m 140.953 210.702 l 142.324
 210.702 l 142.324 201.616 l 147.395 201.616 l 147.395 200.402 l 140.953
 200.402 l 148.875 209.257 m 148.875 210.702 l 150.141 210.702 l 150.141
 209.257 l 148.875 209.257 l 148.875 200.402 m 148.875 207.862 l 150.141
 207.862 l 150.141 200.402 l 148.875 200.402 l 152.074 200.402 m 152.074
 207.862 l 153.211 207.862 l 153.211 206.808 l 153.762 207.624 154.555 208.03
 155.586 208.03 c 156.043 208.03 156.449 207.952 156.828 207.792 c 157.211
 207.632 157.492 207.417 157.676 207.159 c 157.867 206.898 157.996 206.585
 158.074 206.226 c 158.121 205.984 158.141 205.577 158.141 204.991 c 158.141
 200.402 l 156.875 200.402 l 156.875 204.945 l 156.875 205.456 156.828 205.839
 156.73 206.097 c 156.629 206.351 156.461 206.562 156.203 206.702 c 155.953
 206.862 155.66 206.937 155.324 206.937 c 154.785 206.937 154.316 206.769
 153.922 206.425 c 153.531 206.081 153.34 205.433 153.34 204.48 c 153.34
 200.402 l 152.074 200.402 l 165.203 202.808 m 166.508 202.64 l 166.309 
201.878 165.922 201.288 165.363 200.862 c 164.805 200.441 164.09 200.234
 163.227 200.234 c 162.133 200.234 161.266 200.57 160.629 201.241 c 159.988
 201.913 159.668 202.855 159.668 204.073 c 159.668 205.327 159.996 206.304
 160.637 206.991 c 161.281 207.687 162.121 208.03 163.156 208.03 c 164.156
 208.03 164.973 207.695 165.602 207.015 c 166.234 206.335 166.555 205.386
 166.555 204.144 c 166.555 204.073 166.547 203.96 166.547 203.808 c 160.98
 203.808 l 161.027 202.991 161.258 202.359 161.676 201.929 c 162.09 201.487
 162.609 201.273 163.234 201.273 c 163.699 201.273 164.09 201.394 164.418
 201.64 c 164.746 201.878 165.012 202.273 165.203 202.808 c 161.043 204.847
 m 165.219 204.847 l 165.164 205.48 165.004 205.952 164.738 206.265 c 164.332
 206.753 163.812 206.991 163.172 206.991 c 162.586 206.991 162.098 206.8
 161.699 206.409 c 161.309 206.023 161.09 205.503 161.043 204.847 c 138.012
 85.198 m 138.012 95.503 l 139.41 95.503 l 144.828 87.417 l 144.828 95.503
 l 146.133 95.503 l 146.133 85.198 l 144.73 85.198 l 139.324 93.296 l 139.324
 85.198 l 138.012 85.198 l 362.434 88.402 m 362.434 98.702 l 363.836 98.702
 l 369.25 90.616 l 369.25 98.702 l 370.555 98.702 l 370.555 88.402 l 369.156
 88.402 l 363.746 96.495 l 363.746 88.402 l 362.434 88.402 l 246.156 83.601
 m 246.156 93.905 l 250.043 93.905 l 250.723 93.905 251.25 93.87 251.609
 93.808 c 252.113 93.73 252.539 93.562 252.883 93.327 c 253.227 93.089 253.5
 92.761 253.707 92.335 c 253.914 91.905 254.02 91.441 254.02 90.929 c 254.02
 90.046 253.738 89.304 253.188 88.695 c 252.629 88.097 251.617 87.792 250.164
 87.792 c 247.516 87.792 l 247.516 83.601 l 246.156 83.601 l 247.516 89.007
 m 250.18 89.007 l 251.066 89.007 251.691 89.167 252.059 89.495 c 252.426
 89.823 252.617 90.288 252.617 90.89 c 252.617 91.312 252.508 91.679 252.281
 91.991 c 252.066 92.296 251.785 92.503 251.426 92.601 c 251.195 92.663 
250.77 92.687 250.156 92.687 c 247.516 92.687 l 247.516 89.007 l 213.34 
113.206 m 214.645 113.038 l 214.434 112.28 214.059 111.687 213.5 111.265
 c 212.938 110.839 212.227 110.632 211.363 110.632 c 210.266 110.632 209.402
 110.968 208.754 111.64 c 208.121 112.312 207.805 113.257 207.805 114.472
 c 207.805 115.73 208.121 116.702 208.77 117.394 c 209.418 118.089 210.258
 118.433 211.289 118.433 c 212.289 118.433 213.105 118.097 213.738 117.417
 c 214.371 116.737 214.684 115.784 214.684 114.542 c 214.684 114.472 214.684
 114.359 214.676 114.206 c 209.105 114.206 l 209.156 113.394 209.387 112.761
 209.805 112.327 c 210.227 111.89 210.746 111.671 211.371 111.671 c 211.836
 111.671 212.227 111.792 212.555 112.038 c 212.883 112.28 213.148 112.671
 213.34 113.206 c 209.18 115.249 m 213.348 115.249 l 213.289 115.878 213.133
 116.351 212.875 116.663 c 212.469 117.152 211.945 117.394 211.309 117.394
 c 210.723 117.394 210.234 117.198 209.836 116.808 c 209.441 116.425 209.219
 115.905 209.18 115.249 c 225.348 113.206 m 226.652 113.038 l 226.441 112.28
 226.066 111.687 225.508 111.265 c 224.945 110.839 224.234 110.632 223.371
 110.632 c 222.273 110.632 221.41 110.968 220.77 111.64 c 220.133 112.312
 219.812 113.257 219.812 114.472 c 219.812 115.73 220.141 116.702 220.777
 117.394 c 221.426 118.089 222.266 118.433 223.301 118.433 c 224.301 118.433
 225.113 118.097 225.746 117.417 c 226.379 116.737 226.699 115.784 226.699
 114.542 c 226.699 114.472 226.691 114.359 226.691 114.206 c 221.121 114.206
 l 221.164 113.394 221.395 112.761 221.82 112.327 c 222.234 111.89 222.754
 111.671 223.379 111.671 c 223.844 111.671 224.234 111.792 224.562 112.038
 c 224.891 112.28 225.156 112.671 225.348 113.206 c 221.188 115.249 m 225.363
 115.249 l 225.309 115.878 225.148 116.351 224.883 116.663 c 224.477 117.152
 223.953 117.394 223.316 117.394 c 222.73 117.394 222.242 117.198 221.844
 116.808 c 221.449 116.425 221.234 115.905 221.188 115.249 c 237.355 113.206
 m 238.66 113.038 l 238.461 112.28 238.074 111.687 237.516 111.265 c 236.953
 110.839 236.242 110.632 235.379 110.632 c 234.281 110.632 233.418 110.968
 232.777 111.64 c 232.141 112.312 231.82 113.257 231.82 114.472 c 231.82
 115.73 232.148 116.702 232.797 117.394 c 233.434 118.089 234.273 118.433
 235.309 118.433 c 236.309 118.433 237.121 118.097 237.754 117.417 c 238.387
 116.737 238.707 115.784 238.707 114.542 c 238.707 114.472 238.699 114.359
 238.699 114.206 c 233.133 114.206 l 233.18 113.394 233.41 112.761 233.828
 112.327 c 234.242 111.89 234.762 111.671 235.387 111.671 c 235.852 111.671
 236.242 111.792 236.57 112.038 c 236.898 112.28 237.164 112.671 237.355
 113.206 c 233.203 115.249 m 237.371 115.249 l 237.316 115.878 237.156 116.351
 236.891 116.663 c 236.492 117.152 235.965 117.394 235.324 117.394 c 234.738
 117.394 234.25 117.198 233.852 116.808 c 233.461 116.425 233.242 115.905
 233.203 115.249 c 249.363 113.206 m 250.676 113.038 l 250.469 112.28 250.082
 111.687 249.523 111.265 c 248.973 110.839 248.258 110.632 247.387 110.632
 c 246.301 110.632 245.426 110.968 244.785 111.64 c 244.148 112.312 243.828
 113.257 243.828 114.472 c 243.828 115.73 244.156 116.702 244.805 117.394
 c 245.449 118.089 246.281 118.433 247.316 118.433 c 248.316 118.433 249.133
 118.097 249.762 117.417 c 250.395 116.737 250.715 115.784 250.715 114.542
 c 250.715 114.472 250.715 114.359 250.707 114.206 c 245.141 114.206 l 245.188
 113.394 245.418 112.761 245.836 112.327 c 246.25 111.89 246.77 111.671 
247.395 111.671 c 247.859 111.671 248.258 111.792 248.586 112.038 c 248.914
 112.28 249.172 112.671 249.363 113.206 c 245.211 115.249 m 249.379 115.249
 l 249.324 115.878 249.164 116.351 248.898 116.663 c 248.5 117.152 247.973
 117.394 247.332 117.394 c 246.746 117.394 246.258 117.198 245.859 116.808
 c 245.469 116.425 245.25 115.905 245.211 115.249 c 261.371 113.206 m 262.684
 113.038 l 262.477 112.28 262.09 111.687 261.539 111.265 c 260.98 110.839
 260.266 110.632 259.395 110.632 c 258.309 110.632 257.434 110.968 256.797
 111.64 c 256.156 112.312 255.844 113.257 255.844 114.472 c 255.844 115.73
 256.164 116.702 256.812 117.394 c 257.461 118.089 258.301 118.433 259.332
 118.433 c 260.324 118.433 261.141 118.097 261.77 117.417 c 262.41 116.737
 262.723 115.784 262.723 114.542 c 262.723 114.472 262.723 114.359 262.715
 114.206 c 257.148 114.206 l 257.195 113.394 257.426 112.761 257.844 112.327
 c 258.258 111.89 258.777 111.671 259.402 111.671 c 259.867 111.671 260.266
 111.792 260.594 112.038 c 260.922 112.28 261.18 112.671 261.371 113.206
 c 257.219 115.249 m 261.387 115.249 l 261.332 115.878 261.172 116.351 260.906
 116.663 c 260.508 117.152 259.988 117.394 259.34 117.394 c 258.762 117.394
 258.266 117.198 257.875 116.808 c 257.477 116.425 257.258 115.905 257.219
 115.249 c 273.379 113.206 m 274.691 113.038 l 274.484 112.28 274.098 111.687
 273.547 111.265 c 272.988 110.839 272.273 110.632 271.41 110.632 c 270.316
 110.632 269.449 110.968 268.805 111.64 c 268.172 112.312 267.852 113.257
 267.852 114.472 c 267.852 115.73 268.172 116.702 268.82 117.394 c 269.469
 118.089 270.309 118.433 271.34 118.433 c 272.34 118.433 273.148 118.097
 273.785 117.417 c 274.418 116.737 274.73 115.784 274.73 114.542 c 274.73
 114.472 274.73 114.359 274.723 114.206 c 269.156 114.206 l 269.203 113.394
 269.434 112.761 269.852 112.327 c 270.266 111.89 270.785 111.671 271.41
 111.671 c 271.875 111.671 272.273 111.792 272.602 112.038 c 272.93 112.28
 273.188 112.671 273.379 113.206 c 269.227 115.249 m 273.395 115.249 l 273.34
 115.878 273.18 116.351 272.914 116.663 c 272.516 117.152 271.996 117.394
 271.348 117.394 c 270.77 117.394 270.281 117.198 269.883 116.808 c 269.492
 116.425 269.266 115.905 269.227 115.249 c 285.395 113.206 m 286.699 113.038
 l 286.492 112.28 286.113 111.687 285.555 111.265 c 284.996 110.839 284.281
 110.632 283.418 110.632 c 282.324 110.632 281.461 110.968 280.812 111.64
 c 280.18 112.312 279.859 113.257 279.859 114.472 c 279.859 115.73 280.18
 116.702 280.828 117.394 c 281.477 118.089 282.316 118.433 283.348 118.433
 c 284.348 118.433 285.164 118.097 285.797 117.417 c 286.426 116.737 286.738
 115.784 286.738 114.542 c 286.738 114.206 l 281.164 114.206 l 281.211 113.394
 281.441 112.761 281.859 112.327 c 282.281 111.89 282.805 111.671 283.426
 111.671 c 283.891 111.671 284.281 111.792 284.609 112.038 c 284.938 112.28
 285.203 112.671 285.395 113.206 c 281.234 115.249 m 285.402 115.249 l 285.348
 115.878 285.188 116.351 284.93 116.663 c 284.523 117.152 284.004 117.394
 283.363 117.394 c 282.777 117.394 282.289 117.198 281.891 116.808 c 281.5
 116.425 281.273 115.905 281.234 115.249 c 297.402 113.206 m 298.707 113.038
 l 298.508 112.28 298.121 111.687 297.562 111.265 c 297.004 110.839 296.289
 110.632 295.426 110.632 c 294.332 110.632 293.469 110.968 292.828 111.64
 c 292.188 112.312 291.867 113.257 291.867 114.472 c 291.867 115.73 292.195
 116.702 292.836 117.394 c 293.484 118.089 294.324 118.433 295.355 118.433
 c 296.355 118.433 297.172 118.097 297.805 117.417 c 298.434 116.737 298.754
 115.784 298.754 114.542 c 298.754 114.472 298.746 114.359 298.746 114.206
 c 293.18 114.206 l 293.219 113.394 293.449 112.761 293.875 112.327 c 294.289
 111.89 294.812 111.671 295.434 111.671 c 295.898 111.671 296.289 111.792
 296.617 112.038 c 296.945 112.28 297.211 112.671 297.402 113.206 c 293.242
 115.249 m 297.418 115.249 l 297.363 115.878 297.203 116.351 296.938 116.663
 c 296.531 117.152 296.012 117.394 295.371 117.394 c 294.785 117.394 294.301
 117.198 293.898 116.808 c 293.508 116.425 293.289 115.905 293.242 115.249
 c f
Q Q
showpage
%%Trailer
end restore
%%EOF
