%!PS-Adobe-3.0 EPSF-3.0
%%Creator: cairo 1.10.2 (http://cairographics.org)
%%CreationDate: Wed Apr 17 14:46:36 2013
%%Pages: 1
%%BoundingBox: 0 -1 96 34
%%DocumentData: Clean7Bit
%%LanguageLevel: 2
%%EndComments
%%BeginProlog
/cairo_eps_state save def
/dict_count countdictstack def
/op_count count 1 sub def
userdict begin
/q { gsave } bind def
/Q { grestore } bind def
/cm { 6 array astore concat } bind def
/w { setlinewidth } bind def
/J { setlinecap } bind def
/j { setlinejoin } bind def
/M { setmiterlimit } bind def
/d { setdash } bind def
/m { moveto } bind def
/l { lineto } bind def
/c { curveto } bind def
/h { closepath } bind def
/re { exch dup neg 3 1 roll 5 3 roll moveto 0 rlineto
      0 exch rlineto 0 rlineto closepath } bind def
/S { stroke } bind def
/f { fill } bind def
/f* { eofill } bind def
/n { newpath } bind def
/W { clip } bind def
/W* { eoclip } bind def
/BT { } bind def
/ET { } bind def
/pdfmark where { pop globaldict /?pdfmark /exec load put }
    { globaldict begin /?pdfmark /pop load def /pdfmark
    /cleartomark load def end } ifelse
/BDC { mark 3 1 roll /BDC pdfmark } bind def
/EMC { mark /EMC pdfmark } bind def
/cairo_store_point { /cairo_point_y exch def /cairo_point_x exch def } def
/Tj { show currentpoint cairo_store_point } bind def
/TJ {
  {
    dup
    type /stringtype eq
    { show } { -0.001 mul 0 cairo_font_matrix dtransform rmoveto } ifelse
  } forall
  currentpoint cairo_store_point
} bind def
/cairo_selectfont { cairo_font_matrix aload pop pop pop 0 0 6 array astore
    cairo_font exch selectfont cairo_point_x cairo_point_y moveto } bind def
/Tf { pop /cairo_font exch def /cairo_font_matrix where
      { pop cairo_selectfont } if } bind def
/Td { matrix translate cairo_font_matrix matrix concatmatrix dup
      /cairo_font_matrix exch def dup 4 get exch 5 get cairo_store_point
      /cairo_font where { pop cairo_selectfont } if } bind def
/Tm { 2 copy 8 2 roll 6 array astore /cairo_font_matrix exch def
      cairo_store_point /cairo_font where { pop cairo_selectfont } if } bind def
/g { setgray } bind def
/rg { setrgbcolor } bind def
/d1 { setcachedevice } bind def
%%EndProlog
%%Page: 1 1
%%BeginPageSetup
%%PageBoundingBox: 0 -1 96 34
%%EndPageSetup
q 0 -1 96 35 rectclip q
0 33.6 96 -34 re W n
0.666667 0.698039 0.670588 rg
2.727 33.237 m 93.41 33.077 l 94.676 33.077 95.809 33.264 95.809 30.549 
c 95.699 0.686 l 0.438 0.686 l 0.438 30.659 l 0.438 31.998 0.566 33.237 
2.727 33.237 c h
2.727 33.237 m f
0 g
94.203 33.6 m 1.797 33.6 l 0.809 33.6 0 32.795 0 31.803 c 0 0.405 l 0 
0.182 0.184 -0.002 0.406 -0.002 c 95.594 -0.002 l 95.816 -0.002 96 
0.182 96 0.405 c 96 31.803 l 96 32.795 95.191 33.6 94.203 33.6 c h
1.797 32.787 m 94.203 32.787 l 94.746 32.787 95.188 32.346 95.188 
31.803 c 95.188 10.026 l 29.145 10.026 l 26.723 5.651 22.059 2.678 
16.703 2.678 c 11.352 2.678 6.688 5.647 4.27 10.026 c 0.812 10.026 l 
0.812 31.803 l 0.812 32.346 1.254 32.787 1.797 32.787 c h
1.797 32.787 m f
1 g
27.617 17.959 m 27.621 11.936 22.742 7.049 16.715 7.045 c 10.691 7.041 
5.805 11.924 5.801 17.948 c 5.801 17.959 l 5.797 23.983 10.68 28.87 
16.703 28.873 c 22.727 28.877 27.613 23.995 27.617 17.971 c h
27.617 17.959 m f
0 g
25.578 26.842 m 27.996 24.424 29.207 21.463 29.207 17.959 c 29.207 
14.455 28.016 11.526 25.641 9.17 c 23.117 6.686 20.137 5.448 16.695 
5.448 c 13.293 5.448 10.363 6.678 7.906 9.139 c 5.445 11.596 4.215 
14.537 4.215 17.959 c 4.215 21.377 5.445 24.342 7.906 26.842 c 10.301 
29.26 13.234 30.471 16.695 30.471 c 20.199 30.471 23.156 29.26 25.578 
26.842 c h
9.535 25.217 m 7.488 23.151 6.465 20.729 6.465 17.955 c 6.465 15.182 
7.477 12.784 9.5 10.76 c 11.527 8.737 13.934 7.725 16.73 7.725 c 19.527 
7.725 21.957 8.745 24.023 10.791 c 25.984 12.69 26.965 15.077 26.965 
17.955 c 26.965 20.815 25.969 23.237 23.977 25.233 c 21.984 27.221 
19.566 28.221 16.73 28.221 c 13.895 28.221 11.492 27.217 9.535 25.217 c 
h
14.914 19.178 m 14.602 19.858 14.137 20.198 13.512 20.198 c 12.41 
20.198 11.855 19.455 11.855 17.971 c 11.855 16.487 12.41 15.745 13.512 
15.745 c 14.238 15.745 14.758 16.108 15.07 16.83 c 16.602 16.018 l 
15.871 14.721 14.777 14.073 13.32 14.073 c 12.195 14.073 11.297 14.42 
10.621 15.108 c 9.941 15.799 9.605 16.748 9.605 17.959 c 9.605 19.151 
9.953 20.092 10.652 20.795 c 11.348 21.495 12.219 21.842 13.258 21.842 
c 14.801 21.842 15.902 21.237 16.57 20.022 c h
22.105 19.178 m 21.793 19.858 21.336 20.198 20.73 20.198 c 19.605 
20.198 19.043 19.455 19.043 17.971 c 19.043 16.487 19.605 15.745 20.73 
15.745 c 21.461 15.745 21.973 16.108 22.262 16.83 c 23.824 16.018 l 
23.098 14.721 22.008 14.073 20.551 14.073 c 19.43 14.073 18.531 14.42 
17.855 15.108 c 17.18 15.799 16.84 16.748 16.84 17.959 c 16.84 19.151 
17.184 20.092 17.871 20.795 c 18.555 21.495 19.43 21.842 20.488 21.842 
c 22.027 21.842 23.129 21.237 23.793 20.022 c h
22.105 19.178 m f
1 g
50 21.42 m 50 16.678 46.156 12.83 41.41 12.83 c 36.664 12.83 32.82 
16.678 32.82 21.42 c 32.82 26.166 36.664 30.01 41.41 30.01 c 46.156 
30.01 50 26.166 50 21.42 c h
50 21.42 m f
0 g
43.898 23.909 m 43.898 24.237 43.629 24.506 43.297 24.506 c 39.504 
24.506 l 39.172 24.506 38.902 24.237 38.902 23.909 c 38.902 20.112 l 
39.961 20.112 l 39.961 15.62 l 42.84 15.62 l 42.84 20.112 l 43.898 
20.112 l h
43.898 23.909 m f
42.699 26.303 m 42.699 25.588 42.117 25.006 41.402 25.006 c 40.684 
25.006 40.102 25.588 40.102 26.303 c 40.102 27.018 40.684 27.6 41.402 
27.6 c 42.117 27.6 42.699 27.018 42.699 26.303 c h
42.699 26.303 m f
41.387 30.885 m 38.82 30.885 36.645 29.991 34.863 28.198 c 33.035 
26.342 32.125 24.147 32.125 21.612 c 32.125 19.077 33.035 16.897 34.863 
15.069 c 36.691 13.248 38.867 12.334 41.387 12.334 c 43.941 12.334 
46.156 13.252 48.031 15.092 c 49.797 16.842 50.676 19.014 50.676 21.612 
c 50.676 24.209 49.781 26.405 47.984 28.198 c 46.188 29.991 43.992 
30.885 41.387 30.885 c h
41.414 29.217 m 43.52 29.217 45.305 28.475 46.777 26.991 c 48.262 
25.522 49.004 23.729 49.004 21.612 c 49.004 19.479 48.277 17.705 46.824 
16.299 c 45.289 14.784 43.488 14.026 41.414 14.026 c 39.336 14.026 
37.551 14.776 36.047 16.276 c 34.547 17.776 33.797 19.553 33.797 21.612 
c 33.797 23.666 34.555 25.459 36.07 26.991 c 37.527 28.475 39.309 
29.217 41.414 29.217 c h
41.414 29.217 m f*
1 g
38.723 7.401 m 38.973 7.401 39.203 7.381 39.41 7.334 c 39.621 7.291 
39.797 7.217 39.949 7.116 c 40.098 7.014 40.211 6.881 40.293 6.713 c 
40.375 6.545 40.414 6.338 40.414 6.088 c 40.414 5.823 40.355 5.6 40.234 
5.424 c 40.113 5.245 39.934 5.1 39.695 4.983 c 40.023 4.889 40.266 
4.725 40.43 4.491 c 40.59 4.256 40.672 3.971 40.672 3.639 c 40.672 
3.373 40.617 3.143 40.516 2.948 c 40.41 2.752 40.27 2.592 40.094 2.467 
c 39.918 2.346 39.719 2.252 39.492 2.194 c 39.266 2.135 39.035 2.104 
38.797 2.104 c 36.223 2.104 l 36.223 7.401 l h
38.57 5.26 m 38.781 5.26 38.949 5.311 39.086 5.409 c 39.219 5.506 
39.285 5.666 39.285 5.889 c 39.285 6.01 39.262 6.112 39.219 6.19 c 
39.172 6.272 39.113 6.33 39.039 6.377 c 38.965 6.42 38.879 6.452 38.785 
6.471 c 38.688 6.487 38.586 6.495 38.484 6.495 c 37.391 6.495 l 37.391 
5.26 l h
38.641 3.01 m 38.754 3.01 38.863 3.022 38.969 3.045 c 39.07 3.069 
39.164 3.104 39.242 3.155 c 39.32 3.209 39.387 3.28 39.434 3.37 c 39.48 
3.455 39.504 3.569 39.504 3.709 c 39.504 3.979 39.426 4.174 39.273 
4.291 c 39.117 4.405 38.914 4.463 38.664 4.463 c 37.391 4.463 l 37.391 
3.01 l h
38.641 3.01 m f
40.875 7.401 m 42.184 7.401 l 43.422 5.311 l 44.656 7.401 l 45.957 
7.401 l 43.988 4.139 l 43.988 2.104 l 42.82 2.104 l 42.82 4.166 l h
40.875 7.401 m f
78.754 3.412 m 78.816 3.291 78.902 3.19 79.008 3.116 c 79.113 3.037 
79.238 2.979 79.383 2.944 c 79.523 2.905 79.672 2.885 79.828 2.885 c 
79.93 2.885 80.039 2.897 80.16 2.912 c 80.277 2.932 80.387 2.963 80.492 
3.014 c 80.594 3.061 80.684 3.131 80.75 3.217 c 80.82 3.303 80.855 
3.412 80.855 3.549 c 80.855 3.69 80.809 3.807 80.719 3.897 c 80.625 
3.987 80.508 4.061 80.359 4.12 c 80.211 4.178 80.043 4.229 79.855 4.276 
c 79.668 4.319 79.477 4.37 79.285 4.424 c 79.086 4.475 78.895 4.534 
78.707 4.604 c 78.52 4.678 78.352 4.768 78.203 4.885 c 78.055 4.998 
77.934 5.139 77.844 5.311 c 77.75 5.479 77.707 5.686 77.707 5.928 c 
77.707 6.202 77.766 6.44 77.879 6.639 c 77.996 6.838 78.148 7.006 
78.336 7.139 c 78.523 7.272 78.734 7.373 78.973 7.436 c 79.211 7.502 
79.449 7.534 79.684 7.534 c 79.961 7.534 80.227 7.502 80.48 7.44 c 
80.734 7.377 80.961 7.276 81.16 7.139 c 81.359 6.998 81.516 6.823 
81.633 6.608 c 81.746 6.393 81.805 6.131 81.805 5.827 c 80.676 5.827 l 
80.664 5.983 80.633 6.116 80.574 6.217 c 80.52 6.323 80.445 6.405 
80.348 6.463 c 80.258 6.522 80.148 6.565 80.027 6.588 c 79.91 6.612 
79.777 6.627 79.633 6.627 c 79.539 6.627 79.445 6.616 79.352 6.596 c 
79.258 6.577 79.176 6.541 79.098 6.491 c 79.023 6.444 78.961 6.381 
78.91 6.307 c 78.859 6.233 78.836 6.139 78.836 6.026 c 78.836 5.92 
78.855 5.834 78.895 5.772 c 78.934 5.709 79.012 5.647 79.129 5.592 c 
79.246 5.541 79.406 5.487 79.609 5.432 c 79.816 5.377 80.086 5.307 
80.414 5.221 c 80.512 5.205 80.652 5.166 80.824 5.116 c 81 5.065 81.176 
4.979 81.348 4.866 c 81.52 4.752 81.672 4.6 81.797 4.409 c 81.922 4.221 
81.984 3.975 81.984 3.678 c 81.984 3.436 81.938 3.213 81.844 3.002 c 
81.75 2.795 81.609 2.616 81.426 2.467 c 81.238 2.315 81.008 2.198 
80.734 2.112 c 80.461 2.03 80.145 1.987 79.781 1.987 c 79.488 1.987 
79.207 2.022 78.934 2.096 c 78.656 2.166 78.414 2.28 78.207 2.432 c 
77.996 2.588 77.828 2.784 77.703 3.022 c 77.582 3.256 77.52 3.541 
77.527 3.866 c 78.656 3.866 l 78.656 3.69 78.688 3.537 78.754 3.412 c h
78.754 3.412 m f
85.316 7.401 m 87.297 2.104 l 86.09 2.104 l 85.688 3.284 l 83.707 3.284 
l 83.289 2.104 l 82.117 2.104 l 84.121 7.401 l h
85.383 4.155 m 84.715 6.096 l 84.699 6.096 l 84.012 4.155 l h
85.383 4.155 m f
58.016 7.401 m 60.227 3.85 l 60.238 3.85 l 60.238 7.401 l 61.332 7.401 
l 61.332 2.104 l 60.168 2.104 l 57.965 5.651 l 57.949 5.651 l 57.949 
2.104 l 56.855 2.104 l 56.855 7.401 l h
58.016 7.401 m f
65.758 5.991 m 65.688 6.104 65.602 6.202 65.496 6.284 c 65.391 6.37 
65.273 6.436 65.145 6.479 c 65.012 6.53 64.875 6.553 64.73 6.553 c 
64.469 6.553 64.246 6.502 64.062 6.401 c 63.879 6.299 63.73 6.162 
63.617 5.991 c 63.504 5.823 63.422 5.627 63.371 5.409 c 63.316 5.194 
63.293 4.967 63.293 4.733 c 63.293 4.51 63.316 4.295 63.371 4.084 c 
63.422 3.873 63.504 3.686 63.617 3.518 c 63.73 3.35 63.879 3.217 64.062 
3.116 c 64.246 3.01 64.469 2.963 64.73 2.963 c 65.09 2.963 65.367 3.069 
65.566 3.287 c 65.766 3.506 65.891 3.791 65.934 4.151 c 67.062 4.151 l 
67.031 3.819 66.957 3.518 66.832 3.252 c 66.711 2.983 66.547 2.756 
66.344 2.569 c 66.141 2.377 65.902 2.237 65.629 2.135 c 65.359 2.037 
65.059 1.987 64.73 1.987 c 64.328 1.987 63.961 2.057 63.637 2.198 c 
63.312 2.338 63.039 2.534 62.816 2.78 c 62.594 3.03 62.422 3.319 62.305 
3.655 c 62.184 3.987 62.125 4.346 62.125 4.733 c 62.125 5.131 62.184 
5.498 62.305 5.834 c 62.422 6.174 62.594 6.471 62.816 6.725 c 63.039 
6.975 63.312 7.174 63.637 7.319 c 63.961 7.459 64.328 7.534 64.73 7.534 
c 65.023 7.534 65.301 7.491 65.559 7.405 c 65.82 7.323 66.051 7.198 
66.258 7.037 c 66.465 6.877 66.633 6.678 66.766 6.44 c 66.898 6.202 
66.984 5.932 67.02 5.623 c 65.891 5.623 l 65.871 5.756 65.824 5.881 
65.758 5.991 c h
65.758 5.991 m f
91.664 21.616 m 91.668 16.94 87.879 13.147 83.203 13.143 c 78.523 
13.139 74.73 16.928 74.727 21.604 c 74.727 21.616 l 74.723 26.291 
78.512 30.084 83.191 30.088 c 87.867 30.092 91.66 26.303 91.664 21.627 
c h
91.664 21.616 m f
0 g
83.137 30.893 m 80.566 30.893 78.391 29.995 76.609 28.202 c 74.785 
26.346 73.871 24.151 73.871 21.616 c 73.871 19.08 74.785 16.901 76.609 
15.077 c 78.438 13.252 80.613 12.338 83.137 12.338 c 85.691 12.338 
87.902 13.26 89.777 15.1 c 91.543 16.846 92.426 19.018 92.426 21.616 c 
92.426 24.213 91.527 26.409 89.73 28.202 c 87.934 29.995 85.734 30.893 
83.137 30.893 c h
83.16 29.221 m 85.266 29.221 87.051 28.479 88.523 26.995 c 90.008 
25.526 90.75 23.733 90.75 21.616 c 90.75 19.483 90.023 17.713 88.566 
16.303 c 87.035 14.791 85.23 14.034 83.16 14.034 c 81.082 14.034 79.297 
14.784 77.793 16.284 c 76.293 17.78 75.543 19.557 75.543 21.616 c 
75.543 23.67 76.301 25.463 77.816 26.995 c 79.273 28.479 81.055 29.221 
83.16 29.221 c h
83.16 29.221 m f
79.023 22.924 m 79.395 25.26 81.035 26.506 83.094 26.506 c 86.059 
26.506 87.863 24.358 87.863 21.491 c 87.863 18.698 85.941 16.526 83.051 
16.526 c 81.059 16.526 79.277 17.748 78.953 20.151 c 81.289 20.151 l 
81.359 18.905 82.172 18.463 83.328 18.463 c 84.645 18.463 85.5 19.69 
85.5 21.561 c 85.5 23.526 84.762 24.565 83.371 24.565 c 82.355 24.565 
81.477 24.194 81.289 22.924 c 81.969 22.928 l 80.129 21.088 l 78.293 
22.928 l h
79.023 22.924 m f
1 g
70.242 21.608 m 70.246 17.205 66.68 13.639 62.277 13.635 c 57.879 
13.631 54.309 17.198 54.305 21.596 c 54.305 21.608 l 54.301 26.006 
57.867 29.577 62.27 29.58 c 66.668 29.584 70.238 26.018 70.242 21.62 c 
h
70.242 21.608 m f
0 g
68.855 28.198 m 67.062 29.991 64.863 30.885 62.262 30.885 c 59.691 
30.885 57.516 29.991 55.738 28.198 c 53.91 26.342 52.996 24.147 52.996 
21.608 c 52.996 19.073 53.91 16.893 55.738 15.069 c 57.562 13.245 
59.738 12.33 62.262 12.33 c 64.816 12.33 67.031 13.252 68.902 15.092 c 
70.668 16.838 71.551 19.01 71.551 21.608 c 71.551 24.205 70.652 26.401 
68.855 28.198 c h
67.695 16.299 m 66.164 14.784 64.359 14.026 62.285 14.026 c 60.211 
14.026 58.422 14.776 56.922 16.276 c 55.418 17.776 54.668 19.553 54.668 
21.608 c 54.668 22.479 54.805 23.299 55.078 24.077 c 57.535 22.987 l 
57.359 22.987 l 57.359 21.885 l 58.227 21.885 l 58.227 21.729 58.211 
21.573 58.211 21.42 c 58.211 21.155 l 57.359 21.155 l 57.359 20.053 l 
58.367 20.053 l 58.508 19.229 58.816 18.561 59.238 18.034 c 60.105 
16.885 61.504 16.264 63.027 16.264 c 64.02 16.264 64.922 16.557 65.449 
16.854 c 65.078 18.577 l 64.75 18.405 64.02 18.174 63.305 18.174 c 
62.531 18.174 61.801 18.405 61.305 18.967 c 61.07 19.229 60.898 19.588 
60.789 20.053 c 64.168 20.053 l 68.965 17.928 l 68.633 17.338 68.211 
16.795 67.695 16.299 c h
61.66 21.155 m 61.641 21.17 l 61.676 21.155 l h
64.551 21.885 m 64.688 21.885 l 64.688 22.987 l 62.059 22.987 l 60.992 
23.459 l 61.082 23.666 61.191 23.854 61.32 23.998 c 61.801 24.588 
62.484 24.834 63.23 24.834 c 63.914 24.834 64.547 24.635 64.953 24.463 
c 65.387 26.233 l 64.828 26.483 64.004 26.698 63.059 26.698 c 61.598 
26.698 60.355 26.108 59.469 25.116 c 59.273 24.889 59.102 24.635 58.949 
24.366 c 55.898 25.713 l 56.195 26.159 56.543 26.584 56.945 26.991 c 
58.398 28.475 60.18 29.217 62.285 29.217 c 64.391 29.217 66.18 28.475 
67.648 26.991 c 69.137 25.522 69.879 23.729 69.879 21.608 c 69.879 
20.912 69.801 20.252 69.645 19.631 c h
64.551 21.885 m f
Q Q
showpage
%%Trailer
count op_count sub {pop} repeat
countdictstack dict_count sub {end} repeat
cairo_eps_state restore
%%EOF
