%!PS-Adobe-3.0 EPSF-3.0
%%Creator: cairo 1.12.8 (http://cairographics.org)
%%CreationDate: Mon Jul  8 11:17:44 2013
%%Pages: 1
%%DocumentData: Clean7Bit
%%LanguageLevel: 2
%%BoundingBox: 0 -1 594 195
%%EndComments
%%BeginProlog
save
50 dict begin
/q { gsave } bind def
/Q { grestore } bind def
/cm { 6 array astore concat } bind def
/w { setlinewidth } bind def
/J { setlinecap } bind def
/j { setlinejoin } bind def
/M { setmiterlimit } bind def
/d { setdash } bind def
/m { moveto } bind def
/l { lineto } bind def
/c { curveto } bind def
/h { closepath } bind def
/re { exch dup neg 3 1 roll 5 3 roll moveto 0 rlineto
      0 exch rlineto 0 rlineto closepath } bind def
/S { stroke } bind def
/f { fill } bind def
/f* { eofill } bind def
/n { newpath } bind def
/W { clip } bind def
/W* { eoclip } bind def
/BT { } bind def
/ET { } bind def
/pdfmark where { pop globaldict /?pdfmark /exec load put }
    { globaldict begin /?pdfmark /pop load def /pdfmark
    /cleartomark load def end } ifelse
/BDC { mark 3 1 roll /BDC pdfmark } bind def
/EMC { mark /EMC pdfmark } bind def
/cairo_store_point { /cairo_point_y exch def /cairo_point_x exch def } def
/Tj { show currentpoint cairo_store_point } bind def
/TJ {
  {
    dup
    type /stringtype eq
    { show } { -0.001 mul 0 cairo_font_matrix dtransform rmoveto } ifelse
  } forall
  currentpoint cairo_store_point
} bind def
/cairo_selectfont { cairo_font_matrix aload pop pop pop 0 0 6 array astore
    cairo_font exch selectfont cairo_point_x cairo_point_y moveto } bind def
/Tf { pop /cairo_font exch def /cairo_font_matrix where
      { pop cairo_selectfont } if } bind def
/Td { matrix translate cairo_font_matrix matrix concatmatrix dup
      /cairo_font_matrix exch def dup 4 get exch 5 get cairo_store_point
      /cairo_font where { pop cairo_selectfont } if } bind def
/Tm { 2 copy 8 2 roll 6 array astore /cairo_font_matrix exch def
      cairo_store_point /cairo_font where { pop cairo_selectfont } if } bind def
/g { setgray } bind def
/rg { setrgbcolor } bind def
/d1 { setcachedevice } bind def
%%EndProlog
%%Page: 1 1
%%BeginPageSetup
%%PageBoundingBox: 0 -1 594 195
%%EndPageSetup
q 0 -1 594 196 rectclip q
0 g
1.6 w
0 J
0 j
[] 0.0 d
4 M q 1 0 0 -1 0 194.100006 cm
163.793 172.801 m 339.793 172.801 l 339.793 56.801 l 379.793 56.801 l S Q
593.395 127.295 m 593.02 127.202 592.648 127.135 592.277 127.096 c 591.914
 127.053 591.543 127.03 591.164 127.03 c 590.074 127.03 589.199 127.33 588.539
 127.932 c 587.883 128.526 587.523 129.377 587.469 130.491 c 587.32 130.467
 587.172 130.452 587.027 130.444 c 586.891 130.432 586.758 130.424 586.625
 130.424 c 585.645 130.424 584.75 130.588 583.945 130.913 c 583.145 131.237
 582.461 131.709 581.898 132.327 c 581.336 132.948 580.902 133.705 580.598
 134.608 c 580.297 135.506 580.148 136.534 580.148 137.69 c 580.148 138.827
 580.297 139.846 580.598 140.748 c 580.898 141.655 581.336 142.428 581.91
 143.073 c 582.461 143.686 583.141 144.155 583.953 144.479 c 584.773 144.803
 585.664 144.967 586.625 144.967 c 587.625 144.967 588.523 144.799 589.316
 144.467 c 590.117 144.143 590.793 143.678 591.352 143.073 c 591.918 142.448
 592.352 141.682 592.652 140.776 c 592.961 139.87 593.113 138.842 593.113
 137.69 c 593.113 135.983 592.762 134.545 592.062 133.377 c 591.367 132.209
 590.434 131.389 589.258 130.92 c 589.285 130.209 589.453 129.655 589.766
 129.264 c 590.078 128.87 590.648 128.67 591.473 128.67 c 591.727 128.67
 592.031 128.713 592.383 128.795 c 592.738 128.87 592.992 128.936 593.141
 128.998 c 593.395 128.998 l 593.395 127.295 l 591.18 137.69 m 591.18 139.502
 590.773 140.901 589.961 141.881 c 589.148 142.87 588.039 143.362 586.633
 143.362 c 585.215 143.362 584.102 142.87 583.289 141.881 c 582.48 140.901
 582.078 139.502 582.078 137.69 c 582.078 135.858 582.492 134.455 583.316
 133.483 c 584.141 132.514 585.246 132.03 586.633 132.03 c 588.023 132.03
 589.125 132.514 589.945 133.483 c 590.77 134.455 591.18 135.858 591.18 
137.69 c f
593.395 47.627 m 593.02 47.534 592.648 47.467 592.277 47.432 c 591.914 
47.389 591.543 47.366 591.164 47.366 c 590.074 47.366 589.199 47.666 588.539
 48.264 c 587.883 48.858 587.523 49.713 587.469 50.827 c 587.32 50.799 587.172
 50.784 587.027 50.78 c 586.891 50.764 586.758 50.76 586.625 50.76 c 585.645
 50.76 584.75 50.92 583.945 51.248 c 583.145 51.573 582.461 52.045 581.898
 52.663 c 581.336 53.28 580.902 54.041 580.598 54.94 c 580.297 55.842 580.148
 56.87 580.148 58.026 c 580.148 59.163 580.297 60.182 580.598 61.08 c 580.898
 61.987 581.336 62.764 581.91 63.405 c 582.461 64.018 583.141 64.487 583.953
 64.811 c 584.773 65.139 585.664 65.299 586.625 65.299 c 587.625 65.299 
588.523 65.135 589.316 64.803 c 590.117 64.479 590.793 64.014 591.352 63.405
 c 591.918 62.78 592.352 62.014 592.652 61.108 c 592.961 60.202 593.113 
59.174 593.113 58.026 c 593.113 56.319 592.762 54.881 592.062 53.713 c 591.367
 52.545 590.434 51.725 589.258 51.256 c 589.285 50.545 589.453 49.991 589.766
 49.596 c 590.078 49.202 590.648 49.006 591.473 49.006 c 591.727 49.006 
592.031 49.045 592.383 49.127 c 592.738 49.202 592.992 49.272 593.141 49.334
 c 593.395 49.334 l 593.395 47.627 l 591.18 58.026 m 591.18 59.838 590.773
 61.233 589.961 62.217 c 589.148 63.202 588.039 63.698 586.633 63.698 c 
585.215 63.698 584.102 63.202 583.289 62.217 c 582.48 61.233 582.078 59.838
 582.078 58.026 c 582.078 56.194 582.492 54.791 583.316 53.815 c 584.141
 52.846 585.246 52.362 586.633 52.362 c 588.023 52.362 589.125 52.846 589.945
 53.815 c 590.77 54.791 591.18 56.194 591.18 58.026 c f
1 J
q 1 0 0 -1 0 194.100006 cm
580.594 125.934 m 592.594 125.934 l S Q
11.793 184.264 m 11.793 182.998 11.516 181.846 10.961 180.815 c 10.41 179.784
 9.676 178.983 8.758 178.416 c 8.117 178.022 7.406 177.737 6.617 177.561
 c 5.836 177.389 4.805 177.299 3.523 177.299 c 0 177.299 l 0 191.26 l 3.488
 191.26 l 4.852 191.26 5.93 191.159 6.73 190.959 c 7.539 190.764 8.219 190.498
 8.773 190.155 c 9.727 189.561 10.465 188.768 10.996 187.78 c 11.527 186.795
 11.793 185.623 11.793 184.264 c 9.852 184.295 m 9.852 185.389 9.664 186.311
 9.281 187.061 c 8.898 187.811 8.332 188.401 7.574 188.83 c 7.023 189.143
 6.441 189.358 5.82 189.479 c 5.203 189.604 4.461 189.666 3.602 189.666 
c 1.855 189.666 l 1.855 178.893 l 3.602 178.893 l 4.492 178.893 5.273 178.959
 5.934 179.092 c 6.602 179.221 7.215 179.467 7.773 179.823 c 8.465 180.264
 8.984 180.85 9.328 181.577 c 9.68 182.299 9.852 183.205 9.852 184.295 c
 f
11.793 16.1 m 11.449 15.952 11.137 15.811 10.855 15.678 c 10.582 15.545
 10.219 15.409 9.77 15.264 c 9.387 15.147 8.973 15.045 8.523 14.967 c 8.078
 14.877 7.586 14.834 7.051 14.834 c 6.039 14.834 5.117 14.975 4.285 15.256
 c 3.461 15.545 2.742 15.991 2.129 16.596 c 1.527 17.19 1.059 17.944 0.723
 18.858 c 0.383 19.776 0.215 20.842 0.215 22.053 c 0.215 23.202 0.379 24.233
 0.703 25.139 c 1.027 26.045 1.496 26.811 2.109 27.436 c 2.703 28.041 3.418
 28.502 4.258 28.823 c 5.102 29.139 6.035 29.299 7.059 29.299 c 7.809 29.299
 8.555 29.209 9.301 29.03 c 10.051 28.846 10.883 28.53 11.793 28.073 c 11.793
 25.87 l 11.652 25.87 l 10.883 26.514 10.121 26.983 9.367 27.276 c 8.609
 27.569 7.801 27.717 6.938 27.717 c 6.23 27.717 5.594 27.6 5.023 27.37 c
 4.461 27.143 3.961 26.791 3.516 26.311 c 3.086 25.842 2.746 25.248 2.504
 24.53 c 2.266 23.815 2.148 22.991 2.148 22.053 c 2.148 21.073 2.277 20.229
 2.539 19.522 c 2.809 18.815 3.152 18.241 3.57 17.795 c 4.008 17.334 4.52
 16.991 5.102 16.764 c 5.688 16.545 6.305 16.436 6.957 16.436 c 7.852 16.436
 8.688 16.592 9.469 16.897 c 10.25 17.202 10.98 17.663 11.664 18.276 c 11.793
 18.276 l 11.793 16.1 l f
0 J
q 1 0 0 -1 0 194.100006 cm
497.395 116.801 m 497.395 156.801 l 517.395 156.801 l 517.395 156.801 537.395
 156.801 537.395 136.801 c 537.395 116.801 517.395 116.801 517.395 116.801
 c h
S Q
q 1 0 0 -1 0 194.100006 cm
497.395 124.801 m 477.395 124.801 l S Q
q 1 0 0 -1 0 194.100006 cm
497.395 148.801 m 477.395 148.801 l S Q
q 1 0 0 -1 0 194.100006 cm
537.395 136.801 m 557.395 136.801 l S Q
q 1 0 0 -1 0 194.100006 cm
497.395 36.801 m 497.395 76.801 l 517.395 76.801 l 517.395 76.801 537.395
 76.801 537.395 56.801 c 537.395 36.801 517.395 36.801 517.395 36.801 c 
h
S Q
q 1 0 0 -1 0 194.100006 cm
497.395 44.801 m 477.395 44.801 l S Q
q 1 0 0 -1 0 194.100006 cm
497.395 68.801 m 477.395 68.801 l S Q
q 1 0 0 -1 0 194.100006 cm
537.395 56.801 m 557.395 56.801 l S Q
q 1 0 0 -1 0 194.100006 cm
481.395 124.801 m 477.395 124.801 l 477.395 116.801 l 557.395 76.801 l 
557.395 56.801 l S Q
q 1 0 0 -1 0 194.100006 cm
481.395 68.801 m 477.395 68.801 l 477.395 76.801 l 557.395 116.801 l 557.395
 136.801 l S Q
q 1 0 0 -1 0 194.100006 cm
477.395 148.801 m 453.395 148.801 l S Q
q 1 0 0 -1 0 194.100006 cm
557.395 136.801 m 577.395 136.801 l S Q
q 1 0 0 -1 0 194.100006 cm
557.395 56.801 m 577.395 56.801 l S Q
1 g
545.395 57.299 m 545.395 55.092 543.602 53.299 541.395 53.299 c 539.184
 53.299 537.395 55.092 537.395 57.299 c 537.395 59.51 539.184 61.299 541.395
 61.299 c 543.602 61.299 545.395 59.51 545.395 57.299 c h
f
0 g
2 J
q 1 0 0 -1 0 194.100006 cm
545.395 136.801 m 545.395 139.008 543.602 140.801 541.395 140.801 c 539.184
 140.801 537.395 139.008 537.395 136.801 c 537.395 134.59 539.184 132.801
 541.395 132.801 c 543.602 132.801 545.395 134.59 545.395 136.801 c h
S Q
1 g
545.395 137.299 m 545.395 135.092 543.602 133.299 541.395 133.299 c 539.184
 133.299 537.395 135.092 537.395 137.299 c 537.395 139.51 539.184 141.299
 541.395 141.299 c 543.602 141.299 545.395 139.51 545.395 137.299 c h
f
0 g
q 1 0 0 -1 0 194.100006 cm
545.395 56.801 m 545.395 59.008 543.602 60.801 541.395 60.801 c 539.184
 60.801 537.395 59.008 537.395 56.801 c 537.395 54.59 539.184 52.801 541.395
 52.801 c 543.602 52.801 545.395 54.59 545.395 56.801 c h
S Q
0 J
q 1 0 0 -1 0 194.100006 cm
380.594 24.801 m 380.594 64.801 l 400.594 64.801 l 400.594 64.801 420.594
 64.801 420.594 44.801 c 420.594 24.801 400.594 24.801 400.594 24.801 c 
h
S Q
q 1 0 0 -1 0 194.100006 cm
381.395 128.801 m 381.395 168.801 l 401.395 168.801 l 401.395 168.801 421.395
 168.801 421.395 148.801 c 421.395 128.801 401.395 128.801 401.395 128.801
 c h
S Q
q 1 0 0 -1 0 194.100006 cm
421.395 44.801 m 477.395 44.801 l S Q
q 1 0 0 -1 0 194.100006 cm
421.395 148.801 m 453.395 148.801 l S Q
q 1 0 0 -1 0 194.100006 cm
381.395 136.801 m 369.395 136.801 l 369.395 116.801 l 449.395 76.801 l 
449.395 44.801 l S Q
1.423051 w
q 1 0 0 -1 0 194.100006 cm
381.562 160.801 m 340.426 160.801 l S Q
1.6 w
q 1 0 0 -1 0 194.100006 cm
381.395 32.801 m 329.395 32.801 l S Q
453.395 149.299 m 453.395 147.092 451.602 145.299 449.395 145.299 c 447.184
 145.299 445.395 147.092 445.395 149.299 c 445.395 151.51 447.184 153.299
 449.395 153.299 c 451.602 153.299 453.395 151.51 453.395 149.299 c h
f
343.793 33.299 m 343.793 31.092 342.004 29.299 339.793 29.299 c 337.586
 29.299 335.793 31.092 335.793 33.299 c 335.793 35.51 337.586 37.299 339.793
 37.299 c 342.004 37.299 343.793 35.51 343.793 33.299 c h
f
561.395 57.299 m 561.395 55.092 559.602 53.299 557.395 53.299 c 555.184
 53.299 553.395 55.092 553.395 57.299 c 553.395 59.51 555.184 61.299 557.395
 61.299 c 559.602 61.299 561.395 59.51 561.395 57.299 c h
f
561.395 137.299 m 561.395 135.092 559.602 133.299 557.395 133.299 c 555.184
 133.299 553.395 135.092 553.395 137.299 c 553.395 139.51 555.184 141.299
 557.395 141.299 c 559.602 141.299 561.395 139.51 561.395 137.299 c h
f
q 1 0 0 -1 0 194.100006 cm
249.395 92.801 m 249.395 132.801 l 269.395 132.801 l 269.395 132.801 289.395
 132.801 289.395 112.801 c 289.395 92.801 269.395 92.801 269.395 92.801 
c h
S Q
q 1 0 0 -1 0 194.100006 cm
249.395 100.801 m 229.395 100.801 l S Q
q 1 0 0 -1 0 194.100006 cm
249.395 124.801 m 229.395 124.801 l S Q
q 1 0 0 -1 0 194.100006 cm
249.395 12.801 m 249.395 52.801 l 269.395 52.801 l 269.395 52.801 289.395
 52.801 289.395 32.801 c 289.395 12.801 269.395 12.801 269.395 12.801 c 
h
S Q
q 1 0 0 -1 0 194.100006 cm
249.395 20.801 m 229.395 20.801 l S Q
q 1 0 0 -1 0 194.100006 cm
249.395 44.801 m 229.395 44.801 l S Q
q 1 0 0 -1 0 194.100006 cm
289.395 32.801 m 309.395 32.801 l S Q
q 1 0 0 -1 0 194.100006 cm
233.395 100.801 m 229.395 100.801 l 229.395 92.801 l 309.395 52.801 l 309.395
 32.801 l S Q
q 1 0 0 -1 0 194.100006 cm
233.395 44.801 m 229.395 44.801 l 229.395 52.801 l 307.793 92.801 l 307.793
 112.801 l 295.793 112.801 l S Q
q 1 0 0 -1 0 194.100006 cm
229.395 124.801 m 205.395 124.801 l S Q
q 1 0 0 -1 0 194.100006 cm
309.395 32.801 m 329.395 32.801 l S Q
1 g
297.395 81.299 m 297.395 79.092 295.602 77.299 293.395 77.299 c 291.184
 77.299 289.395 79.092 289.395 81.299 c 289.395 83.51 291.184 85.299 293.395
 85.299 c 295.602 85.299 297.395 83.51 297.395 81.299 c h
f
0 g
2 J
q 1 0 0 -1 0 194.100006 cm
297.395 112.801 m 297.395 115.008 295.602 116.801 293.395 116.801 c 291.184
 116.801 289.395 115.008 289.395 112.801 c 289.395 110.59 291.184 108.801
 293.395 108.801 c 295.602 108.801 297.395 110.59 297.395 112.801 c h
S Q
1 g
297.395 161.299 m 297.395 159.092 295.602 157.299 293.395 157.299 c 291.184
 157.299 289.395 159.092 289.395 161.299 c 289.395 163.51 291.184 165.299
 293.395 165.299 c 295.602 165.299 297.395 163.51 297.395 161.299 c h
f
0 g
q 1 0 0 -1 0 194.100006 cm
297.395 32.801 m 297.395 35.008 295.602 36.801 293.395 36.801 c 291.184
 36.801 289.395 35.008 289.395 32.801 c 289.395 30.59 291.184 28.801 293.395
 28.801 c 295.602 28.801 297.395 30.59 297.395 32.801 c h
S Q
0 J
q 1 0 0 -1 0 194.100006 cm
132.594 0.801 m 132.594 40.801 l 152.594 40.801 l 152.594 40.801 172.594
 40.801 172.594 20.801 c 172.594 0.801 152.594 0.801 152.594 0.801 c h
S Q
q 1 0 0 -1 0 194.100006 cm
133.395 104.801 m 133.395 144.801 l 153.395 144.801 l 153.395 144.801 173.395
 144.801 173.395 124.801 c 173.395 104.801 153.395 104.801 153.395 104.801
 c h
S Q
q 1 0 0 -1 0 194.100006 cm
173.395 20.801 m 229.395 20.801 l S Q
q 1 0 0 -1 0 194.100006 cm
173.395 124.801 m 205.395 124.801 l S Q
q 1 0 0 -1 0 194.100006 cm
133.395 112.801 m 121.395 112.801 l 121.395 92.801 l 201.395 52.801 l 201.395
 20.801 l S Q
1.354264 w
q 1 0 0 -1 0 194.100006 cm
133.621 136.801 m 96.367 136.801 l S Q
1.6 w
q 1 0 0 -1 0 194.100006 cm
132.398 8.801 m 15.793 8.801 l S Q
205.395 173.299 m 205.395 171.092 203.602 169.299 201.395 169.299 c 199.184
 169.299 197.395 171.092 197.395 173.299 c 197.395 175.51 199.184 177.299
 201.395 177.299 c 203.602 177.299 205.395 175.51 205.395 173.299 c h
f
99.793 57.299 m 99.793 55.092 98.004 53.299 95.793 53.299 c 93.586 53.299
 91.793 55.092 91.793 57.299 c 91.793 59.51 93.586 61.299 95.793 61.299 
c 98.004 61.299 99.793 59.51 99.793 57.299 c h
f
313.395 161.299 m 313.395 159.092 311.602 157.299 309.395 157.299 c 307.184
 157.299 305.395 159.092 305.395 161.299 c 305.395 163.51 307.184 165.299
 309.395 165.299 c 311.602 165.299 313.395 163.51 313.395 161.299 c h
f
1.6 w
q 1 0 0 -1 0 194.100006 cm
35.793 152.801 m 35.793 192.801 l 75.793 172.801 l h
S Q
q 1 0 0 -1 0 194.100006 cm
115.793 152.801 m 115.793 192.801 l 155.793 172.801 l h
S Q
1 g
83.793 21.299 m 83.793 19.092 82.004 17.299 79.793 17.299 c 77.586 17.299
 75.793 19.092 75.793 21.299 c 75.793 23.51 77.586 25.299 79.793 25.299 
c 82.004 25.299 83.793 23.51 83.793 21.299 c h
f
0 g
1 J
q 1 0 0 -1 0 194.100006 cm
83.793 172.801 m 83.793 175.008 82.004 176.801 79.793 176.801 c 77.586 
176.801 75.793 175.008 75.793 172.801 c 75.793 170.59 77.586 168.801 79.793
 168.801 c 82.004 168.801 83.793 170.59 83.793 172.801 c h
S Q
1 g
163.793 21.299 m 163.793 19.092 162.004 17.299 159.793 17.299 c 157.586
 17.299 155.793 19.092 155.793 21.299 c 155.793 23.51 157.586 25.299 159.793
 25.299 c 162.004 25.299 163.793 23.51 163.793 21.299 c h
f
0 g
q 1 0 0 -1 0 194.100006 cm
163.793 172.801 m 163.793 175.008 162.004 176.801 159.793 176.801 c 157.586
 176.801 155.793 175.008 155.793 172.801 c 155.793 170.59 157.586 168.801
 159.793 168.801 c 162.004 168.801 163.793 170.59 163.793 172.801 c h
S Q
0 J
q 1 0 0 -1 0 194.100006 cm
83.793 172.801 m 95.793 172.801 l 95.793 32.801 l 131.793 32.801 l S Q
q 1 0 0 -1 0 194.100006 cm
95.793 172.801 m 115.793 172.801 l S Q
q 1 0 0 -1 0 194.100006 cm
35.793 172.801 m 15.793 172.801 l S Q
1 g
182.516 173.299 m 182.516 171.092 180.727 169.299 178.516 169.299 c 176.309
 169.299 174.516 171.092 174.516 173.299 c 174.516 175.51 176.309 177.299
 178.516 177.299 c 180.727 177.299 182.516 175.51 182.516 173.299 c h
f
0 g
2 J
q 1 0 0 -1 0 194.100006 cm
182.516 20.801 m 182.516 23.008 180.727 24.801 178.516 24.801 c 176.309
 24.801 174.516 23.008 174.516 20.801 c 174.516 18.59 176.309 16.801 178.516
 16.801 c 180.727 16.801 182.516 18.59 182.516 20.801 c h
S Q
1 g
182.195 68.373 m 182.195 66.166 180.402 64.373 178.195 64.373 c 175.984
 64.373 174.195 66.166 174.195 68.373 c 174.195 70.584 175.984 72.373 178.195
 72.373 c 180.402 72.373 182.195 70.584 182.195 68.373 c h
f
0 g
q 1 0 0 -1 0 194.100006 cm
182.195 125.727 m 182.195 127.934 180.402 129.727 178.195 129.727 c 175.984
 129.727 174.195 127.934 174.195 125.727 c 174.195 123.516 175.984 121.727
 178.195 121.727 c 180.402 121.727 182.195 123.516 182.195 125.727 c h
S Q
1 g
426.992 149.104 m 426.992 146.893 425.203 145.104 422.992 145.104 c 420.785
 145.104 418.992 146.893 418.992 149.104 c 418.992 151.311 420.785 153.104
 422.992 153.104 c 425.203 153.104 426.992 151.311 426.992 149.104 c h
f
0 g
q 1 0 0 -1 0 194.100006 cm
426.992 44.996 m 426.992 47.207 425.203 48.996 422.992 48.996 c 420.785
 48.996 418.992 47.207 418.992 44.996 c 418.992 42.789 420.785 40.996 422.992
 40.996 c 425.203 40.996 426.992 42.789 426.992 44.996 c h
S Q
1 g
426.992 42.901 m 426.992 40.69 425.203 38.901 422.992 38.901 c 420.785 
38.901 418.992 40.69 418.992 42.901 c 418.992 45.108 420.785 46.901 422.992
 46.901 c 425.203 46.901 426.992 45.108 426.992 42.901 c h
f
0 g
q 1 0 0 -1 0 194.100006 cm
426.992 151.199 m 426.992 153.41 425.203 155.199 422.992 155.199 c 420.785
 155.199 418.992 153.41 418.992 151.199 c 418.992 148.992 420.785 147.199
 422.992 147.199 c 425.203 147.199 426.992 148.992 426.992 151.199 c h
S Q
Q Q
showpage
%%Trailer
end restore
%%EOF
